…
trash_wheel <-
  read_excel("Data/202309 Trash Wheel Collection Data.xlsx", 
             sheet = "Mr. Trash Wheel", 
             skip = 2,
             col_names = c("dumpster", "month", "year", "date", "weight", 
                           "volume", "bottles_plastic", "polystyrene", 
                           "cigarettes", "bottles_glass", "bags", "wrappers", 
                           "balls", "homes", "drop1", "drop2")) %>%
  select(-starts_with("drop")) %>%
  filter(!is.na(dumpster)) %>%
  mutate(homes_calc = weight * 500 / 30)
trash_wheel
```

    ## # A tibble: 584 × 15
    ##    dumpster month year  date                weight volume bottles_plastic
    ##       <dbl> <chr> <chr> <dttm>               <dbl>  <dbl>           <dbl>
    ##  1        1 May   2014  2014-05-16 00:00:00   4.31     18            1450
    ##  2        2 May   2014  2014-05-16 00:00:00   2.74     13            1120
    ##  3        3 May   2014  2014-05-16 00:00:00   3.45     15            2450
    ##  4        4 May   2014  2014-05-17 00:00:00   3.1      15            2380
    ##  5        5 May   2014  2014-05-17 00:00:00   4.06     18             980
    ##  6        6 May   2014  2014-05-20 00:00:00   2.71     13            1430
    ##  7        7 May   2014  2014-05-21 00:00:00   1.91      8             910
    ##  8        8 May   2014  2014-05-28 00:00:00   3.7      16            3580
    ##  9        9 June  2014  2014-06-05 00:00:00   2.52     14            2400
    ## 10       10 June  2014  2014-06-11 00:00:00   3.76     18            1340
    ## # ℹ 574 more rows
    ## # ℹ 8 more variables: polystyrene <dbl>, cigarettes <dbl>, bottles_glass <dbl>,
    ## #   bags <dbl>, wrappers <dbl>, balls <dbl>, homes <dbl>, homes_calc <dbl>
